\relax 
\providecommand \oddpage@label [2]{}
\@writefile{toc}{\contentsline {chapter}{\numberline {1}Introduction}{1}}
\@writefile{lof}{\addvspace {10\p@ }}
\@writefile{lot}{\addvspace {10\p@ }}
\@writefile{toc}{\contentsline {section}{\numberline {1.1}Overview}{1}}
\@writefile{toc}{\contentsline {section}{\numberline {1.2}Motivation}{3}}
\@writefile{toc}{\contentsline {section}{\numberline {1.3}Problem Statement}{4}}
\citation{b1}
\citation{b4}
\@writefile{toc}{\contentsline {chapter}{\numberline {2}Literature Review}{5}}
\@writefile{lof}{\addvspace {10\p@ }}
\@writefile{lot}{\addvspace {10\p@ }}
\@writefile{toc}{\contentsline {section}{\numberline {2.1}Blockchain}{5}}
\@writefile{toc}{\contentsline {subsection}{\numberline {2.1.1}Blockchain Characteristics}{5}}
\citation{b1}
\citation{b5}
\citation{b6}
\@writefile{toc}{\contentsline {subsection}{\numberline {2.1.2}Types of Blockchain}{6}}
\@writefile{toc}{\contentsline {subsubsection}{Public Blockchain}{6}}
\@writefile{toc}{\contentsline {subsubsection}{Private Blockchain}{6}}
\@writefile{toc}{\contentsline {subsubsection}{Hybrid Blockchains}{6}}
\citation{b8}
\@writefile{toc}{\contentsline {subsection}{\numberline {2.1.3}Compared to Traditional Database}{7}}
\@writefile{toc}{\contentsline {section}{\numberline {2.2}Smart contracts}{7}}
\@writefile{toc}{\contentsline {subsection}{\numberline {2.2.1}Smart Contract platforms}{7}}
\citation{b10}
\citation{b11}
\citation{b13}
\citation{b14}
\citation{b10}
\citation{b2}
\citation{b12}
\@writefile{toc}{\contentsline {chapter}{\numberline {3}Related Work}{9}}
\@writefile{lof}{\addvspace {10\p@ }}
\@writefile{lot}{\addvspace {10\p@ }}
\@writefile{toc}{\contentsline {subsection}{\numberline {3.0.1}Blockchain and Public sector}{9}}
\@writefile{toc}{\contentsline {subsection}{\numberline {3.0.2}Blockchain-based land registration}{9}}
\@writefile{toc}{\contentsline {subsection}{\numberline {3.0.3}Other notable works}{9}}
\@writefile{toc}{\contentsline {chapter}{\numberline {4}Proposed Work}{11}}
\@writefile{lof}{\addvspace {10\p@ }}
\@writefile{lot}{\addvspace {10\p@ }}
\@writefile{toc}{\contentsline {section}{\numberline {4.1}System Components}{11}}
\@writefile{toc}{\contentsline {subsection}{\numberline {4.1.1}Participanting entities}{11}}
\@writefile{toc}{\contentsline {subsection}{\numberline {4.1.2}Contracts used}{11}}
\@writefile{toc}{\contentsline {section}{\numberline {4.2}Proposed workflow of system}{12}}
\@writefile{lof}{\contentsline {figure}{\numberline {4.1}{\ignorespaces Owner is registered by registrar\relax }}{12}}
\@writefile{lof}{\contentsline {figure}{\numberline {4.2}{\ignorespaces Property contract creation\relax }}{13}}
\@writefile{lof}{\contentsline {figure}{\numberline {4.3}{\ignorespaces Transfer of ownership\relax }}{13}}
\@writefile{lof}{\contentsline {figure}{\numberline {4.4}{\ignorespaces Issuer Registration\relax }}{14}}
\@writefile{toc}{\contentsline {chapter}{\numberline {5}Implementation}{15}}
\@writefile{lof}{\addvspace {10\p@ }}
\@writefile{lot}{\addvspace {10\p@ }}
\@writefile{toc}{\contentsline {section}{\numberline {5.1}Tools and technology used}{15}}
\@writefile{toc}{\contentsline {section}{\numberline {5.2}Smart Contracts Code}{16}}
\@writefile{toc}{\contentsline {subsection}{\numberline {5.2.1}Registrar Contract}{16}}
\@writefile{toc}{\contentsline {subsection}{\numberline {5.2.2}Property Issuer Contract}{19}}
\@writefile{toc}{\contentsline {subsection}{\numberline {5.2.3}Property Contract}{21}}
\@writefile{toc}{\contentsline {section}{\numberline {5.3}Client's Interaction}{23}}
\@writefile{toc}{\contentsline {subsection}{\numberline {5.3.1}Registering to registrar server}{23}}
\@writefile{lof}{\contentsline {figure}{\numberline {5.1}{\ignorespaces Registrar Main page\relax }}{23}}
\@writefile{lof}{\contentsline {figure}{\numberline {5.2}{\ignorespaces Registrar registration page\relax }}{23}}
\@writefile{lof}{\contentsline {figure}{\numberline {5.3}{\ignorespaces Registrar registration complete\relax }}{24}}
\@writefile{toc}{\contentsline {subsection}{\numberline {5.3.2}Registering property to issuer server}{24}}
\@writefile{lof}{\contentsline {figure}{\numberline {5.4}{\ignorespaces Issuer website\relax }}{24}}
\@writefile{lof}{\contentsline {figure}{\numberline {5.5}{\ignorespaces Property registration page\relax }}{25}}
\@writefile{lof}{\contentsline {figure}{\numberline {5.6}{\ignorespaces Property contract created\relax }}{25}}
\@writefile{toc}{\contentsline {chapter}{\numberline {6}Conclusion and Future Work}{26}}
\@writefile{lof}{\addvspace {10\p@ }}
\@writefile{lot}{\addvspace {10\p@ }}
\bibcite{b1}{1}
\bibcite{b2}{2}
\bibcite{b3}{3}
\bibcite{b4}{4}
\bibcite{b5}{5}
\bibcite{b6}{6}
\bibcite{b7}{7}
\bibcite{b8}{8}
\bibcite{b9}{9}
\bibcite{b10}{10}
\bibcite{b11}{11}
\bibcite{b12}{12}
\bibcite{b13}{13}
\bibcite{b14}{14}
\gdef\minted@oldcachelist{,
  default-pyg-prefix.pygstyle,
  default.pygstyle,
  9C5B662258BFC538F9A2D662911F469E4DFBE106D833D2CEC7035E23EFC65B47.pygtex,
  622AE910DD2A39AC9BC58894849174014DFBE106D833D2CEC7035E23EFC65B47.pygtex,
  1BBC5076EF2485CF10698D84FE3463F24DFBE106D833D2CEC7035E23EFC65B47.pygtex}
\@writefile{toc}{\contentsline {chapter}{References}{27}}
